-- Merging decision tree log ---
manifest
ADDED from C:\4103\finalTest\platforms\android\app\src\main\AndroidManifest.xml:2:1-15:12
INJECTED from C:\4103\finalTest\platforms\android\app\src\main\AndroidManifest.xml:2:1-15:12
INJECTED from C:\4103\finalTest\platforms\android\app\src\main\AndroidManifest.xml:2:1-15:12
INJECTED from C:\4103\finalTest\platforms\android\app\src\main\AndroidManifest.xml:2:1-15:12
MERGED from [:CordovaLib] C:\4103\finalTest\platforms\android\CordovaLib\build\intermediates\merged_manifests\debug\processDebugManifest\merged\AndroidManifest.xml:20:1-27:12
INJECTED from C:\4103\finalTest\platforms\android\app\src\main\AndroidManifest.xml:2:1-15:12
INJECTED from C:\4103\finalTest\platforms\android\app\src\main\AndroidManifest.xml:2:1-15:12
INJECTED from C:\4103\finalTest\platforms\android\app\src\main\AndroidManifest.xml:2:1-15:12
	package
		ADDED from C:\4103\finalTest\platforms\android\app\src\main\AndroidManifest.xml:2:102-135
		INJECTED from C:\4103\finalTest\platforms\android\app\src\main\AndroidManifest.xml
		INJECTED from C:\4103\finalTest\platforms\android\app\src\main\AndroidManifest.xml
	android:versionName
		ADDED from C:\4103\finalTest\platforms\android\app\src\main\AndroidManifest.xml:2:74-101
		INJECTED from C:\4103\finalTest\platforms\android\app\src\main\AndroidManifest.xml
		INJECTED from C:\4103\finalTest\platforms\android\app\src\main\AndroidManifest.xml
	android:hardwareAccelerated
		ADDED from C:\4103\finalTest\platforms\android\app\src\main\AndroidManifest.xml:2:11-45
	xmlns:android
		ADDED from C:\4103\finalTest\platforms\android\app\src\main\AndroidManifest.xml:2:136-194
	android:versionCode
		ADDED from C:\4103\finalTest\platforms\android\app\src\main\AndroidManifest.xml:2:46-73
		INJECTED from C:\4103\finalTest\platforms\android\app\src\main\AndroidManifest.xml
		INJECTED from C:\4103\finalTest\platforms\android\app\src\main\AndroidManifest.xml
supports-screens
ADDED from C:\4103\finalTest\platforms\android\app\src\main\AndroidManifest.xml:3:5-191
	android:largeScreens
		ADDED from C:\4103\finalTest\platforms\android\app\src\main\AndroidManifest.xml:3:49-76
	android:smallScreens
		ADDED from C:\4103\finalTest\platforms\android\app\src\main\AndroidManifest.xml:3:132-159
	android:normalScreens
		ADDED from C:\4103\finalTest\platforms\android\app\src\main\AndroidManifest.xml:3:77-105
	android:xlargeScreens
		ADDED from C:\4103\finalTest\platforms\android\app\src\main\AndroidManifest.xml:3:160-188
	android:resizeable
		ADDED from C:\4103\finalTest\platforms\android\app\src\main\AndroidManifest.xml:3:106-131
	android:anyDensity
		ADDED from C:\4103\finalTest\platforms\android\app\src\main\AndroidManifest.xml:3:23-48
uses-permission#android.permission.INTERNET
ADDED from C:\4103\finalTest\platforms\android\app\src\main\AndroidManifest.xml:4:5-67
	android:name
		ADDED from C:\4103\finalTest\platforms\android\app\src\main\AndroidManifest.xml:4:22-64
application
ADDED from C:\4103\finalTest\platforms\android\app\src\main\AndroidManifest.xml:5:5-12:19
	android:supportsRtl
		ADDED from C:\4103\finalTest\platforms\android\app\src\main\AndroidManifest.xml:5:114-140
	android:label
		ADDED from C:\4103\finalTest\platforms\android\app\src\main\AndroidManifest.xml:5:81-113
	android:hardwareAccelerated
		ADDED from C:\4103\finalTest\platforms\android\app\src\main\AndroidManifest.xml:5:18-52
	android:icon
		ADDED from C:\4103\finalTest\platforms\android\app\src\main\AndroidManifest.xml:5:53-80
activity#io.cordova.hellocordova.MainActivity
ADDED from C:\4103\finalTest\platforms\android\app\src\main\AndroidManifest.xml:6:9-11:20
	android:label
		ADDED from C:\4103\finalTest\platforms\android\app\src\main\AndroidManifest.xml:6:97-134
	android:launchMode
		ADDED from C:\4103\finalTest\platforms\android\app\src\main\AndroidManifest.xml:6:135-165
	android:windowSoftInputMode
		ADDED from C:\4103\finalTest\platforms\android\app\src\main\AndroidManifest.xml:6:257-299
	android:configChanges
		ADDED from C:\4103\finalTest\platforms\android\app\src\main\AndroidManifest.xml:6:19-96
	android:theme
		ADDED from C:\4103\finalTest\platforms\android\app\src\main\AndroidManifest.xml:6:194-256
	android:name
		ADDED from C:\4103\finalTest\platforms\android\app\src\main\AndroidManifest.xml:6:166-193
intent-filter#action:name:android.intent.action.MAIN+category:name:android.intent.category.LAUNCHER
ADDED from C:\4103\finalTest\platforms\android\app\src\main\AndroidManifest.xml:7:13-10:29
	android:label
		ADDED from C:\4103\finalTest\platforms\android\app\src\main\AndroidManifest.xml:7:28-65
action#android.intent.action.MAIN
ADDED from C:\4103\finalTest\platforms\android\app\src\main\AndroidManifest.xml:8:17-69
	android:name
		ADDED from C:\4103\finalTest\platforms\android\app\src\main\AndroidManifest.xml:8:25-66
category#android.intent.category.LAUNCHER
ADDED from C:\4103\finalTest\platforms\android\app\src\main\AndroidManifest.xml:9:17-77
	android:name
		ADDED from C:\4103\finalTest\platforms\android\app\src\main\AndroidManifest.xml:9:27-74
uses-sdk
ADDED from C:\4103\finalTest\platforms\android\app\src\main\AndroidManifest.xml:13:5-47
INJECTED from C:\4103\finalTest\platforms\android\app\src\main\AndroidManifest.xml:13:5-47
MERGED from [:CordovaLib] C:\4103\finalTest\platforms\android\CordovaLib\build\intermediates\merged_manifests\debug\processDebugManifest\merged\AndroidManifest.xml:25:5-44
MERGED from [:CordovaLib] C:\4103\finalTest\platforms\android\CordovaLib\build\intermediates\merged_manifests\debug\processDebugManifest\merged\AndroidManifest.xml:25:5-44
INJECTED from C:\4103\finalTest\platforms\android\app\src\main\AndroidManifest.xml:13:5-47
	android:targetSdkVersion
		ADDED from C:\4103\finalTest\platforms\android\app\src\main\AndroidManifest.xml:13:15-44
	android:minSdkVersion
		INJECTED from C:\4103\finalTest\platforms\android\app\src\main\AndroidManifest.xml
		ADDED from C:\4103\finalTest\platforms\android\app\src\main\AndroidManifest.xml:13:5-47
		INJECTED from C:\4103\finalTest\platforms\android\app\src\main\AndroidManifest.xml
uses-permission#android.permission.VIBRATE
ADDED from C:\4103\finalTest\platforms\android\app\src\main\AndroidManifest.xml:14:5-66
	android:name
		ADDED from C:\4103\finalTest\platforms\android\app\src\main\AndroidManifest.xml:14:22-63
